mode: set
server/api_default.go:30.66,31.39 1 0
server/api_default.go:31.39,33.3 1 0
server/api_default.go:37.85,43.27 2 0
server/api_default.go:43.27,45.3 1 0
server/api_default.go:47.2,47.19 1 0
server/api_default.go:51.48,114.2 1 0
server/api_default.go:117.96,123.16 3 0
server/api_default.go:123.16,126.3 2 0
server/api_default.go:127.2,129.16 2 0
server/api_default.go:129.16,132.3 2 0
server/api_default.go:134.2,134.50 1 0
server/api_default.go:138.86,144.16 3 0
server/api_default.go:144.16,147.3 2 0
server/api_default.go:148.2,150.16 2 0
server/api_default.go:150.16,153.3 2 0
server/api_default.go:155.2,155.50 1 0
server/api_default.go:159.83,162.16 2 0
server/api_default.go:162.16,165.3 2 0
server/api_default.go:167.2,167.50 1 0
server/api_default.go:171.87,176.16 4 0
server/api_default.go:176.16,179.3 2 0
server/api_default.go:181.2,181.50 1 0
server/api_default.go:185.84,189.49 4 0
server/api_default.go:189.49,192.3 2 0
server/api_default.go:193.2,193.62 1 0
server/api_default.go:193.62,196.3 2 0
server/api_default.go:197.2,197.65 1 0
server/api_default.go:197.65,200.3 2 0
server/api_default.go:201.2,203.16 2 0
server/api_default.go:203.16,206.3 2 0
server/api_default.go:208.2,208.50 1 0
server/api_default.go:212.79,215.16 2 0
server/api_default.go:215.16,218.3 2 0
server/api_default.go:220.2,220.50 1 0
server/api_default.go:224.84,230.16 3 0
server/api_default.go:230.16,233.3 2 0
server/api_default.go:234.2,236.16 2 0
server/api_default.go:236.16,239.3 2 0
server/api_default.go:241.2,241.50 1 0
server/api_default.go:245.81,251.16 3 0
server/api_default.go:251.16,254.3 2 0
server/api_default.go:255.2,257.16 2 0
server/api_default.go:257.16,260.3 2 0
server/api_default.go:262.2,262.50 1 0
server/api_default.go:266.81,272.16 3 0
server/api_default.go:272.16,275.3 2 0
server/api_default.go:276.2,279.51 4 0
server/api_default.go:279.51,282.3 2 0
server/api_default.go:283.2,283.66 1 0
server/api_default.go:283.66,286.3 2 0
server/api_default.go:287.2,287.69 1 0
server/api_default.go:287.69,290.3 2 0
server/api_default.go:291.2,293.16 2 0
server/api_default.go:293.16,296.3 2 0
server/api_default.go:298.2,298.50 1 0
server/api_default.go:302.80,306.52 4 0
server/api_default.go:306.52,309.3 2 0
server/api_default.go:310.2,310.68 1 0
server/api_default.go:310.68,313.3 2 0
server/api_default.go:314.2,314.71 1 0
server/api_default.go:314.71,317.3 2 0
server/api_default.go:318.2,320.16 2 0
server/api_default.go:320.16,323.3 2 0
server/api_default.go:325.2,325.50 1 0
server/api_default.go:329.90,335.16 3 0
server/api_default.go:335.16,338.3 2 0
server/api_default.go:339.2,341.16 2 0
server/api_default.go:341.16,344.3 2 0
server/api_default.go:346.2,346.50 1 0
server/api_default.go:350.97,356.16 5 0
server/api_default.go:356.16,359.3 2 0
server/api_default.go:361.2,361.50 1 0
server/api_default_service.go:26.61,28.2 1 1
server/api_default_service.go:31.113,33.16 2 1
server/api_default_service.go:33.16,36.3 2 0
server/api_default_service.go:37.2,37.33 1 1
server/api_default_service.go:41.83,43.16 2 1
server/api_default_service.go:43.16,46.3 2 0
server/api_default_service.go:47.2,47.38 1 1
server/api_default_service.go:51.100,53.16 2 1
server/api_default_service.go:53.16,56.3 2 0
server/api_default_service.go:57.2,57.36 1 1
server/api_default_service.go:61.103,65.54 2 1
server/api_default_service.go:65.54,68.3 2 0
server/api_default_service.go:69.2,69.32 1 1
server/api_default_service.go:73.79,75.16 2 1
server/api_default_service.go:75.16,78.3 2 0
server/api_default_service.go:79.2,79.33 1 1
server/api_default_service.go:83.94,84.51 1 1
server/api_default_service.go:84.51,87.3 2 0
server/api_default_service.go:88.2,88.32 1 1
server/api_default_service.go:92.91,94.16 2 1
server/api_default_service.go:94.16,97.3 2 0
server/api_default_service.go:98.2,98.32 1 1
server/api_default_service.go:102.114,110.57 2 1
server/api_default_service.go:110.57,113.3 2 0
server/api_default_service.go:114.2,114.32 1 1
server/api_default_service.go:118.105,126.47 2 1
server/api_default_service.go:126.47,129.3 2 0
server/api_default_service.go:130.2,130.32 1 1
server/api_default_service.go:134.100,135.50 1 1
server/api_default_service.go:135.50,138.3 2 0
server/api_default_service.go:139.2,139.32 1 1
server/api_default_service.go:143.117,145.16 2 1
server/api_default_service.go:145.16,148.3 2 0
server/api_default_service.go:149.2,149.33 1 1
server/api_default_service.go:153.96,154.55 1 1
server/api_default_service.go:154.55,157.3 2 0
server/api_default_service.go:158.2,158.32 1 1
server/api_default_service.go:161.78,162.41 1 1
server/api_default_service.go:162.41,165.3 2 0
server/api_default_service.go:166.2,166.32 1 1
server/error.go:28.39,30.2 1 0
server/error.go:32.39,34.2 1 0
server/error.go:41.40,43.2 1 0
server/error.go:51.99,52.38 1 0
server/error.go:52.38,54.52 1 0
server/error.go:54.52,54.65 1 0
server/error.go:55.8,55.46 1 0
server/error.go:55.46,57.52 1 0
server/error.go:57.52,57.65 1 0
server/error.go:58.8,61.3 1 0
server/helpers.go:17.56,22.2 1 1
server/helpers.go:25.40,27.2 1 0
server/helpers.go:31.91,33.2 1 0
server/helpers.go:38.91,39.22 1 0
server/helpers.go:41.22,43.10 2 0
server/helpers.go:43.10,45.4 1 0
server/helpers.go:47.3,47.39 1 0
server/helpers.go:47.39,49.4 1 0
server/helpers.go:52.21,53.39 1 0
server/helpers.go:53.39,54.79 1 0
server/helpers.go:54.79,56.5 1 0
server/helpers.go:59.2,59.12 1 0
server/logger.go:18.59,19.71 1 0
server/logger.go:19.71,31.3 3 0
server/model_company.go:23.47,25.2 1 0
server/model_company.go:28.50,30.2 1 0
server/model_company_n.go:21.49,23.2 1 0
server/model_company_n.go:26.52,28.2 1 0
server/model_job_listing.go:31.53,33.2 1 0
server/model_job_listing.go:36.56,38.2 1 0
server/model_job_listing_n.go:29.55,31.2 1 0
server/model_job_listing_n.go:34.58,36.2 1 0
server/routers.go:44.47,46.30 2 0
server/routers.go:46.30,47.41 1 0
server/routers.go:47.41,57.4 4 0
server/routers.go:60.2,60.15 1 0
server/routers.go:64.82,66.19 2 0
server/routers.go:66.19,68.3 1 0
server/routers.go:68.8,70.3 1 0
server/routers.go:72.2,72.14 1 0
server/routers.go:72.14,74.3 1 0
server/routers.go:76.2,76.12 1 0
server/routers.go:80.76,82.16 2 0
server/routers.go:82.16,84.3 1 0
server/routers.go:86.2,86.45 1 0
server/routers.go:90.80,91.55 1 0
server/routers.go:91.55,93.3 1 0
server/routers.go:95.2,97.55 2 0
server/routers.go:97.55,99.17 2 0
server/routers.go:99.17,101.4 1 0
server/routers.go:103.3,103.30 1 0
server/routers.go:106.2,106.19 1 0
server/routers.go:110.83,112.16 2 0
server/routers.go:112.16,114.3 1 0
server/routers.go:116.2,119.16 3 0
server/routers.go:119.16,121.3 1 0
server/routers.go:123.2,124.16 2 0
server/routers.go:124.16,126.3 1 0
server/routers.go:128.2,132.18 3 0
server/routers.go:142.50,143.17 1 0
server/routers.go:143.17,145.3 1 0
server/routers.go:147.2,147.38 1 0
server/routers.go:151.50,152.17 1 0
server/routers.go:152.17,154.3 1 0
server/routers.go:156.2,157.24 2 0
server/routers.go:161.46,162.17 1 0
server/routers.go:162.17,164.3 1 0
server/routers.go:166.2,166.40 1 0
server/routers.go:170.46,171.17 1 0
server/routers.go:171.17,173.3 1 0
server/routers.go:175.2,176.24 2 0
server/routers.go:180.44,181.17 1 0
server/routers.go:181.17,183.3 1 0
server/routers.go:185.2,185.33 1 0
server/routers.go:190.79,192.46 2 0
server/routers.go:192.46,193.19 1 0
server/routers.go:193.19,195.4 1 0
server/routers.go:197.3,198.23 2 0
server/routers.go:202.93,203.46 1 0
server/routers.go:203.46,204.19 1 0
server/routers.go:204.19,206.4 1 0
server/routers.go:208.3,209.23 2 0
server/routers.go:213.77,214.46 1 0
server/routers.go:214.46,217.3 2 0
server/routers.go:222.54,223.30 1 0
server/routers.go:223.30,224.24 1 0
server/routers.go:224.24,226.4 1 0
server/routers.go:228.3,228.13 1 0
server/routers.go:232.54,233.30 1 0
server/routers.go:233.30,234.24 1 0
server/routers.go:234.24,236.4 1 0
server/routers.go:238.3,238.13 1 0
server/routers.go:243.105,245.16 2 0
server/routers.go:245.16,247.3 1 0
server/routers.go:249.2,249.9 1 0
server/routers.go:249.9,250.32 1 0
server/routers.go:250.32,251.35 1 0
server/routers.go:251.35,253.5 1 0
server/routers.go:257.2,257.15 1 0
server/routers.go:261.73,264.2 2 0
server/routers.go:267.134,268.17 1 0
server/routers.go:268.17,269.15 1 0
server/routers.go:269.15,271.4 1 0
server/routers.go:273.3,273.18 1 0
server/routers.go:276.2,279.24 3 0
server/routers.go:279.24,281.17 2 0
server/routers.go:281.17,283.4 1 0
server/routers.go:285.3,285.10 1 0
server/routers.go:285.10,286.33 1 0
server/routers.go:286.33,287.36 1 0
server/routers.go:287.36,289.6 1 0
server/routers.go:293.3,293.16 1 0
server/routers.go:296.2,296.20 1 0
